…
    ## `summarise()` has grouped output by 'DDS', 'TRATAMIENTO.'. You can override
    ## using the `.groups` argument.

``` r
masa_seca_102
```

    ## # A tibble: 96 × 5
    ## # Groups:   DDS, TRATAMIENTO. [24]
    ##      DDS TRATAMIENTO.       REND_TUB_TON_HA_102 DDS_102 TRATAMIENTO_102   
    ##    <dbl> <chr>                            <dbl>   <dbl> <chr>             
    ##  1    43 0% Fertilización                     0      43 0% Fertilización  
    ##  2    43 0% Fertilización                     0      43 0% Fertilización  
    ##  3    43 0% Fertilización                     0      43 0% Fertilización  
    ##  4    43 0% Fertilización                     0      43 0% Fertilización  
    ##  5    43 100% Fertilización                   0      43 100% Fertilización
    ##  6    43 100% Fertilización                   0      43 100% Fertilización
    ##  7    43 100% Fertilización                   0      43 100% Fertilización
    ##  8    43 100% Fertilización                   0      43 100% Fertilización
    ##  9    43 33% Fertilización                    0      43 33% Fertilización 
    ## 10    43 33% Fertilización                    0      43 33% Fertilización 
    ## # … with 86 more rows
…
